…
## let simulate a lot

lets start with a for loop

``` r
output = vector("list", length = 100)

for (i in 1:100) {
  output[[i]] = sim_mean_sd( 30)
}
bind_rows(output)
```

    ## # A tibble: 100 × 2
    ##    mu_hat sigma_hat
    ##     <dbl>     <dbl>
    ##  1   2.46      2.26
    ##  2   2.13      2.40
    ##  3   2.29      3.23
    ##  4   1.12      2.29
    ##  5   2.31      2.75
    ##  6   1.91      2.67
    ##  7   1.86      3.32
    ##  8   3.06      2.77
    ##  9   2.51      3.39
    ## 10   2.06      2.43
    ## # … with 90 more rows
…
